^C:\USERS\DAKOT\SOURCE\REPOS\DLM.PLAYINGCARDS\DLM.PLAYINGCARDS\DEBUG\MAIN.OBJ
C:\USERS\DAKOT\SOURCE\REPOS\DLM.PLAYINGCARDS\DLM.PLAYINGCARDS\DEBUG\DLM.PLAYINGCARDS.ILK
C:\USERS\DAKOT\SOURCE\REPOS\DLM.PLAYINGCARDS\DEBUG\DLM.PLAYINGCARDS.EXE
C:\USERS\DAKOT\SOURCE\REPOS\DLM.PLAYINGCARDS\DEBUG\DLM.PLAYINGCARDS.PDB
